/*
WARNING: Do NOT edit the input and output ports in this file in a text
editor if you plan to continue editing the block that represents it in
the Block Editor! File corruption is VERY likely to occur.
*/
/*
Copyright (C) 1991-2013 Altera Corporation
Your use of Altera Corporation's design tools, logic functions 
and other software and tools, and its AMPP partner logic 
functions, and any output files from any of the foregoing 
(including device programming or simulation files), and any 
associated documentation or information are expressly subject 
to the terms and conditions of the Altera Program License 
Subscription Agreement, Altera MegaCore Function License 
Agreement, or other applicable license agreement, including, 
without limitation, that your use is for the sole purpose of 
programming logic devices manufactured by Altera and sold by 
Altera or its authorized distributors.  Please refer to the 
applicable agreement for further details.
*/
(header "graphic" (version "1.4"))
(pin
	(input)
	(rect -40 80 128 96)
	(text "INPUT" (rect 125 0 153 10)(font "Arial" (font_size 6)))
	(text "comp" (rect 5 0 32 12)(font "Arial" ))
	(pt 168 8)
	(drawing
		(line (pt 84 12)(pt 109 12))
		(line (pt 84 4)(pt 109 4))
		(line (pt 113 8)(pt 168 8))
		(line (pt 84 12)(pt 84 4))
		(line (pt 109 4)(pt 113 8))
		(line (pt 109 12)(pt 113 8))
	)
	(text "VCC" (rect 128 7 148 17)(font "Arial" (font_size 6)))
	(annotation_block (location)(rect -88 96 -40 112))
)
(pin
	(input)
	(rect -24 120 144 136)
	(text "INPUT" (rect 125 0 153 10)(font "Arial" (font_size 6)))
	(text "y7" (rect 5 0 17 12)(font "Arial" ))
	(pt 168 8)
	(drawing
		(line (pt 84 12)(pt 109 12))
		(line (pt 84 4)(pt 109 4))
		(line (pt 113 8)(pt 168 8))
		(line (pt 84 12)(pt 84 4))
		(line (pt 109 4)(pt 113 8))
		(line (pt 109 12)(pt 113 8))
	)
	(text "VCC" (rect 128 7 148 17)(font "Arial" (font_size 6)))
)
(pin
	(input)
	(rect -16 144 152 160)
	(text "INPUT" (rect 125 0 153 10)(font "Arial" (font_size 6)))
	(text "y6" (rect 5 0 17 12)(font "Arial" ))
	(pt 168 8)
	(drawing
		(line (pt 84 12)(pt 109 12))
		(line (pt 84 4)(pt 109 4))
		(line (pt 113 8)(pt 168 8))
		(line (pt 84 12)(pt 84 4))
		(line (pt 109 4)(pt 113 8))
		(line (pt 109 12)(pt 113 8))
	)
	(text "VCC" (rect 128 7 148 17)(font "Arial" (font_size 6)))
)
(pin
	(input)
	(rect -8 168 160 184)
	(text "INPUT" (rect 125 0 153 10)(font "Arial" (font_size 6)))
	(text "y5" (rect 5 0 17 12)(font "Arial" ))
	(pt 168 8)
	(drawing
		(line (pt 84 12)(pt 109 12))
		(line (pt 84 4)(pt 109 4))
		(line (pt 113 8)(pt 168 8))
		(line (pt 84 12)(pt 84 4))
		(line (pt 109 4)(pt 113 8))
		(line (pt 109 12)(pt 113 8))
	)
	(text "VCC" (rect 128 7 148 17)(font "Arial" (font_size 6)))
)
(pin
	(input)
	(rect 0 192 168 208)
	(text "INPUT" (rect 125 0 153 10)(font "Arial" (font_size 6)))
	(text "y4" (rect 5 0 17 12)(font "Arial" ))
	(pt 168 8)
	(drawing
		(line (pt 84 12)(pt 109 12))
		(line (pt 84 4)(pt 109 4))
		(line (pt 113 8)(pt 168 8))
		(line (pt 84 12)(pt 84 4))
		(line (pt 109 4)(pt 113 8))
		(line (pt 109 12)(pt 113 8))
	)
	(text "VCC" (rect 128 7 148 17)(font "Arial" (font_size 6)))
	(annotation_block (location)(rect -56 208 0 224))
)
(pin
	(input)
	(rect 8 216 176 232)
	(text "INPUT" (rect 125 0 153 10)(font "Arial" (font_size 6)))
	(text "y3" (rect 5 0 17 12)(font "Arial" ))
	(pt 168 8)
	(drawing
		(line (pt 84 12)(pt 109 12))
		(line (pt 84 4)(pt 109 4))
		(line (pt 113 8)(pt 168 8))
		(line (pt 84 12)(pt 84 4))
		(line (pt 109 4)(pt 113 8))
		(line (pt 109 12)(pt 113 8))
	)
	(text "VCC" (rect 128 7 148 17)(font "Arial" (font_size 6)))
	(annotation_block (location)(rect -40 232 8 248))
)
(pin
	(input)
	(rect 16 240 184 256)
	(text "INPUT" (rect 125 0 153 10)(font "Arial" (font_size 6)))
	(text "y2" (rect 5 0 17 12)(font "Arial" ))
	(pt 168 8)
	(drawing
		(line (pt 84 12)(pt 109 12))
		(line (pt 84 4)(pt 109 4))
		(line (pt 113 8)(pt 168 8))
		(line (pt 84 12)(pt 84 4))
		(line (pt 109 4)(pt 113 8))
		(line (pt 109 12)(pt 113 8))
	)
	(text "VCC" (rect 128 7 148 17)(font "Arial" (font_size 6)))
	(annotation_block (location)(rect -32 256 16 272))
)
(pin
	(input)
	(rect 24 264 192 280)
	(text "INPUT" (rect 125 0 153 10)(font "Arial" (font_size 6)))
	(text "y1" (rect 5 0 17 12)(font "Arial" ))
	(pt 168 8)
	(drawing
		(line (pt 84 12)(pt 109 12))
		(line (pt 84 4)(pt 109 4))
		(line (pt 113 8)(pt 168 8))
		(line (pt 84 12)(pt 84 4))
		(line (pt 109 4)(pt 113 8))
		(line (pt 109 12)(pt 113 8))
	)
	(text "VCC" (rect 128 7 148 17)(font "Arial" (font_size 6)))
	(annotation_block (location)(rect -32 280 24 296))
)
(pin
	(input)
	(rect 32 288 200 304)
	(text "INPUT" (rect 125 0 153 10)(font "Arial" (font_size 6)))
	(text "y0" (rect 5 0 17 12)(font "Arial" ))
	(pt 168 8)
	(drawing
		(line (pt 84 12)(pt 109 12))
		(line (pt 84 4)(pt 109 4))
		(line (pt 113 8)(pt 168 8))
		(line (pt 84 12)(pt 84 4))
		(line (pt 109 4)(pt 113 8))
		(line (pt 109 12)(pt 113 8))
	)
	(text "VCC" (rect 128 7 148 17)(font "Arial" (font_size 6)))
	(annotation_block (location)(rect -16 304 32 320))
)
(pin
	(input)
	(rect 152 376 320 392)
	(text "INPUT" (rect 125 0 153 10)(font "Arial" (font_size 6)))
	(text "x7" (rect 5 0 16 12)(font "Arial" ))
	(pt 168 8)
	(drawing
		(line (pt 84 12)(pt 109 12))
		(line (pt 84 4)(pt 109 4))
		(line (pt 113 8)(pt 168 8))
		(line (pt 84 12)(pt 84 4))
		(line (pt 109 4)(pt 113 8))
		(line (pt 109 12)(pt 113 8))
	)
	(text "VCC" (rect 128 7 148 17)(font "Arial" (font_size 6)))
)
(pin
	(input)
	(rect 160 400 328 416)
	(text "INPUT" (rect 125 0 153 10)(font "Arial" (font_size 6)))
	(text "x6" (rect 5 0 16 12)(font "Arial" ))
	(pt 168 8)
	(drawing
		(line (pt 84 12)(pt 109 12))
		(line (pt 84 4)(pt 109 4))
		(line (pt 113 8)(pt 168 8))
		(line (pt 84 12)(pt 84 4))
		(line (pt 109 4)(pt 113 8))
		(line (pt 109 12)(pt 113 8))
	)
	(text "VCC" (rect 128 7 148 17)(font "Arial" (font_size 6)))
)
(pin
	(input)
	(rect 168 424 336 440)
	(text "INPUT" (rect 125 0 153 10)(font "Arial" (font_size 6)))
	(text "x5" (rect 5 0 16 12)(font "Arial" ))
	(pt 168 8)
	(drawing
		(line (pt 84 12)(pt 109 12))
		(line (pt 84 4)(pt 109 4))
		(line (pt 113 8)(pt 168 8))
		(line (pt 84 12)(pt 84 4))
		(line (pt 109 4)(pt 113 8))
		(line (pt 109 12)(pt 113 8))
	)
	(text "VCC" (rect 128 7 148 17)(font "Arial" (font_size 6)))
)
(pin
	(input)
	(rect 176 448 344 464)
	(text "INPUT" (rect 125 0 153 10)(font "Arial" (font_size 6)))
	(text "x4" (rect 5 0 16 12)(font "Arial" ))
	(pt 168 8)
	(drawing
		(line (pt 84 12)(pt 109 12))
		(line (pt 84 4)(pt 109 4))
		(line (pt 113 8)(pt 168 8))
		(line (pt 84 12)(pt 84 4))
		(line (pt 109 4)(pt 113 8))
		(line (pt 109 12)(pt 113 8))
	)
	(text "VCC" (rect 128 7 148 17)(font "Arial" (font_size 6)))
	(annotation_block (location)(rect 120 464 176 480))
)
(pin
	(input)
	(rect 184 472 352 488)
	(text "INPUT" (rect 125 0 153 10)(font "Arial" (font_size 6)))
	(text "x3" (rect 5 0 16 12)(font "Arial" ))
	(pt 168 8)
	(drawing
		(line (pt 84 12)(pt 109 12))
		(line (pt 84 4)(pt 109 4))
		(line (pt 113 8)(pt 168 8))
		(line (pt 84 12)(pt 84 4))
		(line (pt 109 4)(pt 113 8))
		(line (pt 109 12)(pt 113 8))
	)
	(text "VCC" (rect 128 7 148 17)(font "Arial" (font_size 6)))
	(annotation_block (location)(rect 128 488 184 504))
)
(pin
	(input)
	(rect 192 496 360 512)
	(text "INPUT" (rect 125 0 153 10)(font "Arial" (font_size 6)))
	(text "x2" (rect 5 0 16 12)(font "Arial" ))
	(pt 168 8)
	(drawing
		(line (pt 84 12)(pt 109 12))
		(line (pt 84 4)(pt 109 4))
		(line (pt 113 8)(pt 168 8))
		(line (pt 84 12)(pt 84 4))
		(line (pt 109 4)(pt 113 8))
		(line (pt 109 12)(pt 113 8))
	)
	(text "VCC" (rect 128 7 148 17)(font "Arial" (font_size 6)))
	(annotation_block (location)(rect 136 512 192 528))
)
(pin
	(input)
	(rect 200 520 368 536)
	(text "INPUT" (rect 125 0 153 10)(font "Arial" (font_size 6)))
	(text "x1" (rect 5 0 16 12)(font "Arial" ))
	(pt 168 8)
	(drawing
		(line (pt 84 12)(pt 109 12))
		(line (pt 84 4)(pt 109 4))
		(line (pt 113 8)(pt 168 8))
		(line (pt 84 12)(pt 84 4))
		(line (pt 109 4)(pt 113 8))
		(line (pt 109 12)(pt 113 8))
	)
	(text "VCC" (rect 128 7 148 17)(font "Arial" (font_size 6)))
	(annotation_block (location)(rect 144 536 200 552))
)
(pin
	(input)
	(rect 208 544 376 560)
	(text "INPUT" (rect 125 0 153 10)(font "Arial" (font_size 6)))
	(text "x0" (rect 5 0 16 12)(font "Arial" ))
	(pt 168 8)
	(drawing
		(line (pt 84 12)(pt 109 12))
		(line (pt 84 4)(pt 109 4))
		(line (pt 113 8)(pt 168 8))
		(line (pt 84 12)(pt 84 4))
		(line (pt 109 4)(pt 113 8))
		(line (pt 109 12)(pt 113 8))
	)
	(text "VCC" (rect 128 7 148 17)(font "Arial" (font_size 6)))
	(annotation_block (location)(rect 160 560 208 576))
)
(pin
	(output)
	(rect 920 128 1096 144)
	(text "OUTPUT" (rect 1 0 39 10)(font "Arial" (font_size 6)))
	(text "cout" (rect 90 0 111 12)(font "Arial" ))
	(pt 0 8)
	(drawing
		(line (pt 0 8)(pt 52 8))
		(line (pt 52 4)(pt 78 4))
		(line (pt 52 12)(pt 78 12))
		(line (pt 52 12)(pt 52 4))
		(line (pt 78 4)(pt 82 8))
		(line (pt 82 8)(pt 78 12))
		(line (pt 78 12)(pt 82 8))
	)
)
(pin
	(output)
	(rect 1056 160 1232 176)
	(text "OUTPUT" (rect 1 0 39 10)(font "Arial" (font_size 6)))
	(text "s7" (rect 90 0 101 12)(font "Arial" ))
	(pt 0 8)
	(drawing
		(line (pt 0 8)(pt 52 8))
		(line (pt 52 4)(pt 78 4))
		(line (pt 52 12)(pt 78 12))
		(line (pt 52 12)(pt 52 4))
		(line (pt 78 4)(pt 82 8))
		(line (pt 82 8)(pt 78 12))
		(line (pt 78 12)(pt 82 8))
	)
	(annotation_block (location)(rect 1232 176 1288 192))
)
(pin
	(output)
	(rect 1024 192 1200 208)
	(text "OUTPUT" (rect 1 0 39 10)(font "Arial" (font_size 6)))
	(text "s6" (rect 90 0 101 12)(font "Arial" ))
	(pt 0 8)
	(drawing
		(line (pt 0 8)(pt 52 8))
		(line (pt 52 4)(pt 78 4))
		(line (pt 52 12)(pt 78 12))
		(line (pt 52 12)(pt 52 4))
		(line (pt 78 4)(pt 82 8))
		(line (pt 82 8)(pt 78 12))
		(line (pt 78 12)(pt 82 8))
	)
	(annotation_block (location)(rect 1200 208 1256 224))
)
(pin
	(output)
	(rect 1008 224 1184 240)
	(text "OUTPUT" (rect 1 0 39 10)(font "Arial" (font_size 6)))
	(text "s5" (rect 90 0 101 12)(font "Arial" ))
	(pt 0 8)
	(drawing
		(line (pt 0 8)(pt 52 8))
		(line (pt 52 4)(pt 78 4))
		(line (pt 52 12)(pt 78 12))
		(line (pt 52 12)(pt 52 4))
		(line (pt 78 4)(pt 82 8))
		(line (pt 82 8)(pt 78 12))
		(line (pt 78 12)(pt 82 8))
	)
	(annotation_block (location)(rect 1184 240 1232 256))
)
(pin
	(output)
	(rect 984 256 1160 272)
	(text "OUTPUT" (rect 1 0 39 10)(font "Arial" (font_size 6)))
	(text "s4" (rect 90 0 101 12)(font "Arial" ))
	(pt 0 8)
	(drawing
		(line (pt 0 8)(pt 52 8))
		(line (pt 52 4)(pt 78 4))
		(line (pt 52 12)(pt 78 12))
		(line (pt 52 12)(pt 52 4))
		(line (pt 78 4)(pt 82 8))
		(line (pt 82 8)(pt 78 12))
		(line (pt 78 12)(pt 82 8))
	)
	(annotation_block (location)(rect 1160 272 1208 288))
)
(pin
	(output)
	(rect 968 288 1144 304)
	(text "OUTPUT" (rect 1 0 39 10)(font "Arial" (font_size 6)))
	(text "s3" (rect 90 0 101 12)(font "Arial" ))
	(pt 0 8)
	(drawing
		(line (pt 0 8)(pt 52 8))
		(line (pt 52 4)(pt 78 4))
		(line (pt 52 12)(pt 78 12))
		(line (pt 52 12)(pt 52 4))
		(line (pt 78 4)(pt 82 8))
		(line (pt 82 8)(pt 78 12))
		(line (pt 78 12)(pt 82 8))
	)
	(annotation_block (location)(rect 1144 304 1200 320))
)
(pin
	(output)
	(rect 936 328 1112 344)
	(text "OUTPUT" (rect 1 0 39 10)(font "Arial" (font_size 6)))
	(text "s2" (rect 90 0 101 12)(font "Arial" ))
	(pt 0 8)
	(drawing
		(line (pt 0 8)(pt 52 8))
		(line (pt 52 4)(pt 78 4))
		(line (pt 52 12)(pt 78 12))
		(line (pt 52 12)(pt 52 4))
		(line (pt 78 4)(pt 82 8))
		(line (pt 82 8)(pt 78 12))
		(line (pt 78 12)(pt 82 8))
	)
	(annotation_block (location)(rect 1112 344 1160 360))
)
(pin
	(output)
	(rect 904 360 1080 376)
	(text "OUTPUT" (rect 1 0 39 10)(font "Arial" (font_size 6)))
	(text "s1" (rect 90 0 101 12)(font "Arial" ))
	(pt 0 8)
	(drawing
		(line (pt 0 8)(pt 52 8))
		(line (pt 52 4)(pt 78 4))
		(line (pt 52 12)(pt 78 12))
		(line (pt 52 12)(pt 52 4))
		(line (pt 78 4)(pt 82 8))
		(line (pt 82 8)(pt 78 12))
		(line (pt 78 12)(pt 82 8))
	)
	(annotation_block (location)(rect 1080 376 1128 392))
)
(pin
	(output)
	(rect 888 392 1064 408)
	(text "OUTPUT" (rect 1 0 39 10)(font "Arial" (font_size 6)))
	(text "s0" (rect 90 0 101 12)(font "Arial" ))
	(pt 0 8)
	(drawing
		(line (pt 0 8)(pt 52 8))
		(line (pt 52 4)(pt 78 4))
		(line (pt 52 12)(pt 78 12))
		(line (pt 52 12)(pt 52 4))
		(line (pt 78 4)(pt 82 8))
		(line (pt 82 8)(pt 78 12))
		(line (pt 78 12)(pt 82 8))
	)
	(annotation_block (location)(rect 1064 408 1112 424))
)
(symbol
	(rect 528 96 816 416)
	(text "eightBitAdder" (rect 5 0 81 14)(font "Arial" (font_size 8)))
	(text "inst" (rect 8 304 25 316)(font "Arial" ))
	(port
		(pt 0 24)
		(input)
		(text "cin" (rect 0 0 16 14)(font "Arial" (font_size 8)))
		(text "cin" (rect 21 19 37 33)(font "Arial" (font_size 8)))
		(line (pt 0 24)(pt 16 24))
	)
	(port
		(pt 0 248)
		(input)
		(text "x3" (rect 0 0 14 14)(font "Arial" (font_size 8)))
		(text "x3" (rect 21 243 35 257)(font "Arial" (font_size 8)))
		(line (pt 0 248)(pt 16 248))
	)
	(port
		(pt 0 264)
		(input)
		(text "x2" (rect 0 0 14 14)(font "Arial" (font_size 8)))
		(text "x2" (rect 21 259 35 273)(font "Arial" (font_size 8)))
		(line (pt 0 264)(pt 16 264))
	)
	(port
		(pt 0 280)
		(input)
		(text "x1" (rect 0 0 14 14)(font "Arial" (font_size 8)))
		(text "x1" (rect 21 275 35 289)(font "Arial" (font_size 8)))
		(line (pt 0 280)(pt 16 280))
	)
	(port
		(pt 0 296)
		(input)
		(text "x0" (rect 0 0 14 14)(font "Arial" (font_size 8)))
		(text "x0" (rect 21 291 35 305)(font "Arial" (font_size 8)))
		(line (pt 0 296)(pt 16 296))
	)
	(port
		(pt 0 112)
		(input)
		(text "y3" (rect 0 0 14 14)(font "Arial" (font_size 8)))
		(text "y3" (rect 21 107 35 121)(font "Arial" (font_size 8)))
		(line (pt 0 112)(pt 16 112))
	)
	(port
		(pt 0 128)
		(input)
		(text "y2" (rect 0 0 14 14)(font "Arial" (font_size 8)))
		(text "y2" (rect 21 123 35 137)(font "Arial" (font_size 8)))
		(line (pt 0 128)(pt 16 128))
	)
	(port
		(pt 0 144)
		(input)
		(text "y1" (rect 0 0 14 14)(font "Arial" (font_size 8)))
		(text "y1" (rect 21 139 35 153)(font "Arial" (font_size 8)))
		(line (pt 0 144)(pt 16 144))
	)
	(port
		(pt 0 160)
		(input)
		(text "y0" (rect 0 0 14 14)(font "Arial" (font_size 8)))
		(text "y0" (rect 21 155 35 169)(font "Arial" (font_size 8)))
		(line (pt 0 160)(pt 16 160))
	)
	(port
		(pt 0 184)
		(input)
		(text "x7" (rect 0 0 14 14)(font "Arial" (font_size 8)))
		(text "x7" (rect 21 179 35 193)(font "Arial" (font_size 8)))
		(line (pt 0 184)(pt 16 184))
	)
	(port
		(pt 0 200)
		(input)
		(text "x6" (rect 0 0 14 14)(font "Arial" (font_size 8)))
		(text "x6" (rect 21 195 35 209)(font "Arial" (font_size 8)))
		(line (pt 0 200)(pt 16 200))
	)
	(port
		(pt 0 216)
		(input)
		(text "x5" (rect 0 0 14 14)(font "Arial" (font_size 8)))
		(text "x5" (rect 21 211 35 225)(font "Arial" (font_size 8)))
		(line (pt 0 216)(pt 16 216))
	)
	(port
		(pt 0 232)
		(input)
		(text "x4" (rect 0 0 14 14)(font "Arial" (font_size 8)))
		(text "x4" (rect 21 227 35 241)(font "Arial" (font_size 8)))
		(line (pt 0 232)(pt 16 232))
	)
	(port
		(pt 0 48)
		(input)
		(text "y7" (rect 0 0 14 14)(font "Arial" (font_size 8)))
		(text "y7" (rect 21 43 35 57)(font "Arial" (font_size 8)))
		(line (pt 0 48)(pt 16 48))
	)
	(port
		(pt 0 64)
		(input)
		(text "y6" (rect 0 0 14 14)(font "Arial" (font_size 8)))
		(text "y6" (rect 21 59 35 73)(font "Arial" (font_size 8)))
		(line (pt 0 64)(pt 16 64))
	)
	(port
		(pt 0 80)
		(input)
		(text "y5" (rect 0 0 14 14)(font "Arial" (font_size 8)))
		(text "y5" (rect 21 75 35 89)(font "Arial" (font_size 8)))
		(line (pt 0 80)(pt 16 80))
	)
	(port
		(pt 0 96)
		(input)
		(text "y4" (rect 0 0 14 14)(font "Arial" (font_size 8)))
		(text "y4" (rect 21 91 35 105)(font "Arial" (font_size 8)))
		(line (pt 0 96)(pt 16 96))
	)
	(port
		(pt 288 184)
		(output)
		(text "s3" (rect 192 0 206 14)(font "Arial" (font_size 8)))
		(text "s3" (rect 253 179 267 193)(font "Arial" (font_size 8)))
		(line (pt 288 184)(pt 272 184))
	)
	(port
		(pt 288 208)
		(output)
		(text "s2" (rect 192 0 206 14)(font "Arial" (font_size 8)))
		(text "s2" (rect 253 203 267 217)(font "Arial" (font_size 8)))
		(line (pt 288 208)(pt 272 208))
	)
	(port
		(pt 288 232)
		(output)
		(text "s1" (rect 192 0 206 14)(font "Arial" (font_size 8)))
		(text "s1" (rect 253 227 267 241)(font "Arial" (font_size 8)))
		(line (pt 288 232)(pt 272 232))
	)
	(port
		(pt 288 256)
		(output)
		(text "s0" (rect 192 0 206 14)(font "Arial" (font_size 8)))
		(text "s0" (rect 253 251 267 265)(font "Arial" (font_size 8)))
		(line (pt 288 256)(pt 272 256))
	)
	(port
		(pt 288 40)
		(output)
		(text "cout" (rect 192 0 216 14)(font "Arial" (font_size 8)))
		(text "cout" (rect 243 35 267 49)(font "Arial" (font_size 8)))
		(line (pt 288 40)(pt 272 40))
	)
	(port
		(pt 288 88)
		(output)
		(text "s7" (rect 192 0 206 14)(font "Arial" (font_size 8)))
		(text "s7" (rect 253 83 267 97)(font "Arial" (font_size 8)))
		(line (pt 288 88)(pt 272 88))
	)
	(port
		(pt 288 112)
		(output)
		(text "s6" (rect 192 0 206 14)(font "Arial" (font_size 8)))
		(text "s6" (rect 253 107 267 121)(font "Arial" (font_size 8)))
		(line (pt 288 112)(pt 272 112))
	)
	(port
		(pt 288 136)
		(output)
		(text "s5" (rect 192 0 206 14)(font "Arial" (font_size 8)))
		(text "s5" (rect 253 131 267 145)(font "Arial" (font_size 8)))
		(line (pt 288 136)(pt 272 136))
	)
	(port
		(pt 288 160)
		(output)
		(text "s4" (rect 192 0 206 14)(font "Arial" (font_size 8)))
		(text "s4" (rect 253 155 267 169)(font "Arial" (font_size 8)))
		(line (pt 288 160)(pt 272 160))
	)
	(drawing
		(rectangle (rect 16 16 272 304))
	)
)
(symbol
	(rect 328 72 464 280)
	(text "vhdlOnesComplementer" (rect 5 0 124 12)(font "Arial" ))
	(text "inst1" (rect 8 192 31 204)(font "Arial" ))
	(port
		(pt 0 32)
		(input)
		(text "comp" (rect 0 0 27 12)(font "Arial" ))
		(text "comp" (rect 21 27 48 39)(font "Arial" ))
		(line (pt 0 32)(pt 16 32))
	)
	(port
		(pt 0 176)
		(input)
		(text "x0" (rect 0 0 11 12)(font "Arial" ))
		(text "x0" (rect 21 171 32 183)(font "Arial" ))
		(line (pt 0 176)(pt 16 176))
	)
	(port
		(pt 0 160)
		(input)
		(text "x1" (rect 0 0 11 12)(font "Arial" ))
		(text "x1" (rect 21 155 32 167)(font "Arial" ))
		(line (pt 0 160)(pt 16 160))
	)
	(port
		(pt 0 144)
		(input)
		(text "x2" (rect 0 0 11 12)(font "Arial" ))
		(text "x2" (rect 21 139 32 151)(font "Arial" ))
		(line (pt 0 144)(pt 16 144))
	)
	(port
		(pt 0 128)
		(input)
		(text "x3" (rect 0 0 11 12)(font "Arial" ))
		(text "x3" (rect 21 123 32 135)(font "Arial" ))
		(line (pt 0 128)(pt 16 128))
	)
	(port
		(pt 0 112)
		(input)
		(text "x4" (rect 0 0 11 12)(font "Arial" ))
		(text "x4" (rect 21 107 32 119)(font "Arial" ))
		(line (pt 0 112)(pt 16 112))
	)
	(port
		(pt 0 96)
		(input)
		(text "x5" (rect 0 0 11 12)(font "Arial" ))
		(text "x5" (rect 21 91 32 103)(font "Arial" ))
		(line (pt 0 96)(pt 16 96))
	)
	(port
		(pt 0 80)
		(input)
		(text "x6" (rect 0 0 11 12)(font "Arial" ))
		(text "x6" (rect 21 75 32 87)(font "Arial" ))
		(line (pt 0 80)(pt 16 80))
	)
	(port
		(pt 0 64)
		(input)
		(text "x7" (rect 0 0 11 12)(font "Arial" ))
		(text "x7" (rect 21 59 32 71)(font "Arial" ))
		(line (pt 0 64)(pt 16 64))
	)
	(port
		(pt 136 176)
		(output)
		(text "s0" (rect 0 0 11 12)(font "Arial" ))
		(text "s0" (rect 106 171 117 183)(font "Arial" ))
		(line (pt 136 176)(pt 120 176))
	)
	(port
		(pt 136 160)
		(output)
		(text "s1" (rect 0 0 11 12)(font "Arial" ))
		(text "s1" (rect 106 155 117 167)(font "Arial" ))
		(line (pt 136 160)(pt 120 160))
	)
	(port
		(pt 136 144)
		(output)
		(text "s2" (rect 0 0 11 12)(font "Arial" ))
		(text "s2" (rect 106 139 117 151)(font "Arial" ))
		(line (pt 136 144)(pt 120 144))
	)
	(port
		(pt 136 128)
		(output)
		(text "s3" (rect 0 0 11 12)(font "Arial" ))
		(text "s3" (rect 106 123 117 135)(font "Arial" ))
		(line (pt 136 128)(pt 120 128))
	)
	(port
		(pt 136 112)
		(output)
		(text "s4" (rect 0 0 11 12)(font "Arial" ))
		(text "s4" (rect 106 107 117 119)(font "Arial" ))
		(line (pt 136 112)(pt 120 112))
	)
	(port
		(pt 136 96)
		(output)
		(text "s5" (rect 0 0 11 12)(font "Arial" ))
		(text "s5" (rect 106 91 117 103)(font "Arial" ))
		(line (pt 136 96)(pt 120 96))
	)
	(port
		(pt 136 80)
		(output)
		(text "s6" (rect 0 0 11 12)(font "Arial" ))
		(text "s6" (rect 106 75 117 87)(font "Arial" ))
		(line (pt 136 80)(pt 120 80))
	)
	(port
		(pt 136 64)
		(output)
		(text "s7" (rect 0 0 11 12)(font "Arial" ))
		(text "s7" (rect 106 59 117 71)(font "Arial" ))
		(line (pt 136 64)(pt 120 64))
	)
	(drawing
		(rectangle (rect 16 16 120 192))
	)
)
(connector
	(pt 312 272)
	(pt 192 272)
)
(connector
	(pt 296 248)
	(pt 184 248)
)
(connector
	(pt 264 224)
	(pt 176 224)
)
(connector
	(pt 528 40)
	(pt 528 120)
)
(connector
	(pt 376 552)
	(pt 528 552)
)
(connector
	(pt 528 552)
	(pt 528 392)
)
(connector
	(pt 528 376)
	(pt 512 376)
)
(connector
	(pt 512 376)
	(pt 512 528)
)
(connector
	(pt 512 528)
	(pt 368 528)
)
(connector
	(pt 528 360)
	(pt 496 360)
)
(connector
	(pt 496 360)
	(pt 496 504)
)
(connector
	(pt 496 504)
	(pt 360 504)
)
(connector
	(pt 528 344)
	(pt 480 344)
)
(connector
	(pt 480 344)
	(pt 480 480)
)
(connector
	(pt 480 480)
	(pt 352 480)
)
(connector
	(pt 464 456)
	(pt 344 456)
)
(connector
	(pt 328 88)
	(pt 328 104)
)
(connector
	(pt 520 144)
	(pt 520 136)
)
(connector
	(pt 528 144)
	(pt 520 144)
)
(connector
	(pt 520 136)
	(pt 464 136)
)
(connector
	(pt 512 160)
	(pt 512 152)
)
(connector
	(pt 528 160)
	(pt 512 160)
)
(connector
	(pt 512 152)
	(pt 464 152)
)
(connector
	(pt 504 176)
	(pt 504 168)
)
(connector
	(pt 528 176)
	(pt 504 176)
)
(connector
	(pt 504 168)
	(pt 464 168)
)
(connector
	(pt 496 192)
	(pt 496 184)
)
(connector
	(pt 528 192)
	(pt 496 192)
)
(connector
	(pt 496 184)
	(pt 464 184)
)
(connector
	(pt 488 208)
	(pt 488 200)
)
(connector
	(pt 528 208)
	(pt 488 208)
)
(connector
	(pt 488 200)
	(pt 464 200)
)
(connector
	(pt 480 224)
	(pt 480 216)
)
(connector
	(pt 528 224)
	(pt 480 224)
)
(connector
	(pt 480 216)
	(pt 464 216)
)
(connector
	(pt 472 240)
	(pt 472 232)
)
(connector
	(pt 528 240)
	(pt 472 240)
)
(connector
	(pt 472 232)
	(pt 464 232)
)
(connector
	(pt 472 256)
	(pt 472 248)
)
(connector
	(pt 528 256)
	(pt 472 256)
)
(connector
	(pt 472 248)
	(pt 464 248)
)
(connector
	(pt 200 296)
	(pt 328 296)
)
(connector
	(pt 312 232)
	(pt 328 232)
)
(connector
	(pt 312 272)
	(pt 312 232)
)
(connector
	(pt 296 216)
	(pt 328 216)
)
(connector
	(pt 296 248)
	(pt 296 216)
)
(connector
	(pt 264 200)
	(pt 328 200)
)
(connector
	(pt 264 224)
	(pt 264 200)
)
(connector
	(pt 328 248)
	(pt 328 296)
)
(connector
	(pt 208 40)
	(pt 528 40)
)
(connector
	(pt 208 40)
	(pt 208 88)
)
(connector
	(pt 888 400)
	(pt 816 400)
)
(connector
	(pt 816 400)
	(pt 816 352)
)
(connector
	(pt 816 328)
	(pt 840 328)
)
(connector
	(pt 840 328)
	(pt 840 368)
)
(connector
	(pt 904 368)
	(pt 840 368)
)
(connector
	(pt 816 304)
	(pt 880 304)
)
(connector
	(pt 880 304)
	(pt 880 336)
)
(connector
	(pt 880 336)
	(pt 936 336)
)
(connector
	(pt 968 296)
	(pt 896 296)
)
(connector
	(pt 896 296)
	(pt 896 280)
)
(connector
	(pt 896 280)
	(pt 816 280)
)
(connector
	(pt 816 256)
	(pt 984 256)
)
(connector
	(pt 984 256)
	(pt 984 264)
)
(connector
	(pt 816 232)
	(pt 1008 232)
)
(connector
	(pt 816 208)
	(pt 1024 208)
)
(connector
	(pt 1024 208)
	(pt 1024 200)
)
(connector
	(pt 1056 168)
	(pt 816 168)
)
(connector
	(pt 816 168)
	(pt 816 184)
)
(connector
	(pt 920 136)
	(pt 816 136)
)
(connector
	(pt 168 200)
	(pt 200 200)
)
(connector
	(pt 208 88)
	(pt 328 88)
)
(connector
	(pt 200 184)
	(pt 200 200)
)
(connector
	(pt 464 328)
	(pt 464 456)
)
(connector
	(pt 248 136)
	(pt 328 136)
)
(connector
	(pt 248 152)
	(pt 328 152)
)
(connector
	(pt 248 168)
	(pt 328 168)
)
(connector
	(pt 472 280)
	(pt 528 280)
)
(connector
	(pt 472 296)
	(pt 528 296)
)
(connector
	(pt 472 312)
	(pt 528 312)
)
(connector
	(pt 200 184)
	(pt 248 184)
)
(connector
	(pt 248 184)
	(pt 328 184)
)
(connector
	(pt 248 136)
	(pt 248 152)
)
(connector
	(pt 248 152)
	(pt 248 168)
)
(connector
	(pt 248 168)
	(pt 248 184)
)
(connector
	(pt 464 328)
	(pt 472 328)
)
(connector
	(pt 472 328)
	(pt 528 328)
)
(connector
	(pt 472 280)
	(pt 472 296)
)
(connector
	(pt 472 296)
	(pt 472 312)
)
(connector
	(pt 472 312)
	(pt 472 328)
)
(connector
	(pt 128 88)
	(pt 208 88)
)
(junction (pt 208 88))
(junction (pt 248 184))
(junction (pt 248 152))
(junction (pt 248 168))
(junction (pt 472 328))
(junction (pt 472 296))
(junction (pt 472 312))
(text "the board only has 5 switches so the first 4 bits of the 8 bit number are the same" (rect -8 320 452 334)(font "Arial" (font_size 8)))
(text "and the pin planner won't let you assign the same pin to multiple inputs" (rect -8 344 390 358)(font "Arial" (font_size 8)))
(text "x are the left 5 switches" (rect -24 448 115 462)(font "Arial" (font_size 8)))
