$comment
	File created using the following command:
		vcd file lab4.msim.vcd -direction
$end
$date
	Fri Sep 21 16:24:33 2018
$end
$version
	ModelSim Version 10.1d
$end
$timescale
	1ps
$end
$scope module fullAdder_vlg_vec_tst $end
$var reg 1 ! cin $end
$var reg 1 " x $end
$var reg 1 # y $end
$var wire 1 $ cout $end
$var wire 1 % s $end
$var wire 1 & sampler $end
$scope module i1 $end
$var wire 1 ' gnd $end
$var wire 1 ( vcc $end
$var wire 1 ) unknown $end
$var tri1 1 * devclrn $end
$var tri1 1 + devpor $end
$var tri1 1 , devoe $end
$var wire 1 - cout~output_o $end
$var wire 1 . s~output_o $end
$var wire 1 / x~input_o $end
$var wire 1 0 y~input_o $end
$var wire 1 1 cin~input_o $end
$var wire 1 2 inst3~0_combout $end
$var wire 1 3 inst|inst2~0_combout $end
$upscope $end
$upscope $end
$enddefinitions $end
#0
$dumpvars
0!
0"
0#
0$
0%
x&
0'
1(
x)
1*
1+
1,
0-
0.
0/
00
01
02
03
$end
#1000000
1#
10
0&
13
1.
1%
#2000000
1"
0#
1/
00
1&
#3000000
1#
10
0&
03
12
0.
1-
0%
1$
#4000000
1!
0"
0#
11
0/
00
1&
13
02
1.
0-
1%
0$
#5000000
1#
10
0&
03
12
0.
1-
0%
1$
#6000000
1"
0#
1/
00
1&
#7000000
1#
10
0&
13
1.
1%
#8000000
