Analysis & Synthesis report for lab4
Fri Sep 28 17:11:51 2018
Quartus II 64-Bit Version 13.1.0 Build 162 10/23/2013 SJ Web Edition


---------------------
; Table of Contents ;
---------------------
  1. Legal Notice
  2. Analysis & Synthesis Summary
  3. Analysis & Synthesis Settings
  4. Parallel Compilation
  5. Analysis & Synthesis Source Files Read
  6. Analysis & Synthesis Resource Usage Summary
  7. Analysis & Synthesis Resource Utilization by Entity
  8. General Register Statistics
  9. Elapsed Time Per Partition
 10. Analysis & Synthesis Messages



----------------
; Legal Notice ;
----------------
Copyright (C) 1991-2013 Altera Corporation
Your use of Altera Corporation's design tools, logic functions 
and other software and tools, and its AMPP partner logic 
functions, and any output files from any of the foregoing 
(including device programming or simulation files), and any 
associated documentation or information are expressly subject 
to the terms and conditions of the Altera Program License 
Subscription Agreement, Altera MegaCore Function License 
Agreement, or other applicable license agreement, including, 
without limitation, that your use is for the sole purpose of 
programming logic devices manufactured by Altera and sold by 
Altera or its authorized distributors.  Please refer to the 
applicable agreement for further details.



+---------------------------------------------------------------------------------+
; Analysis & Synthesis Summary                                                    ;
+------------------------------------+--------------------------------------------+
; Analysis & Synthesis Status        ; Successful - Fri Sep 28 17:11:51 2018      ;
; Quartus II 64-Bit Version          ; 13.1.0 Build 162 10/23/2013 SJ Web Edition ;
; Revision Name                      ; lab4                                       ;
; Top-level Entity Name              ; eightBitAdderSubtractor                    ;
; Family                             ; Cyclone III                                ;
; Total logic elements               ; 12                                         ;
;     Total combinational functions  ; 12                                         ;
;     Dedicated logic registers      ; 0                                          ;
; Total registers                    ; 0                                          ;
; Total pins                         ; 26                                         ;
; Total virtual pins                 ; 0                                          ;
; Total memory bits                  ; 0                                          ;
; Embedded Multiplier 9-bit elements ; 0                                          ;
; Total PLLs                         ; 0                                          ;
+------------------------------------+--------------------------------------------+


+---------------------------------------------------------------------------------------------------------------------------+
; Analysis & Synthesis Settings                                                                                             ;
+----------------------------------------------------------------------------+-------------------------+--------------------+
; Option                                                                     ; Setting                 ; Default Value      ;
+----------------------------------------------------------------------------+-------------------------+--------------------+
; Device                                                                     ; EP3C16F484C6            ;                    ;
; Top-level entity name                                                      ; eightBitAdderSubtractor ; lab4               ;
; Family name                                                                ; Cyclone III             ; Cyclone IV GX      ;
; Use smart compilation                                                      ; Off                     ; Off                ;
; Enable parallel Assembler and TimeQuest Timing Analyzer during compilation ; On                      ; On                 ;
; Enable compact report table                                                ; Off                     ; Off                ;
; Restructure Multiplexers                                                   ; Auto                    ; Auto               ;
; Create Debugging Nodes for IP Cores                                        ; Off                     ; Off                ;
; Preserve fewer node names                                                  ; On                      ; On                 ;
; Disable OpenCore Plus hardware evaluation                                  ; Off                     ; Off                ;
; Verilog Version                                                            ; Verilog_2001            ; Verilog_2001       ;
; VHDL Version                                                               ; VHDL_1993               ; VHDL_1993          ;
; State Machine Processing                                                   ; Auto                    ; Auto               ;
; Safe State Machine                                                         ; Off                     ; Off                ;
; Extract Verilog State Machines                                             ; On                      ; On                 ;
; Extract VHDL State Machines                                                ; On                      ; On                 ;
; Ignore Verilog initial constructs                                          ; Off                     ; Off                ;
; Iteration limit for constant Verilog loops                                 ; 5000                    ; 5000               ;
; Iteration limit for non-constant Verilog loops                             ; 250                     ; 250                ;
; Add Pass-Through Logic to Inferred RAMs                                    ; On                      ; On                 ;
; Infer RAMs from Raw Logic                                                  ; On                      ; On                 ;
; Parallel Synthesis                                                         ; On                      ; On                 ;
; DSP Block Balancing                                                        ; Auto                    ; Auto               ;
; NOT Gate Push-Back                                                         ; On                      ; On                 ;
; Power-Up Don't Care                                                        ; On                      ; On                 ;
; Remove Redundant Logic Cells                                               ; Off                     ; Off                ;
; Remove Duplicate Registers                                                 ; On                      ; On                 ;
; Ignore CARRY Buffers                                                       ; Off                     ; Off                ;
; Ignore CASCADE Buffers                                                     ; Off                     ; Off                ;
; Ignore GLOBAL Buffers                                                      ; Off                     ; Off                ;
; Ignore ROW GLOBAL Buffers                                                  ; Off                     ; Off                ;
; Ignore LCELL Buffers                                                       ; Off                     ; Off                ;
; Ignore SOFT Buffers                                                        ; On                      ; On                 ;
; Limit AHDL Integers to 32 Bits                                             ; Off                     ; Off                ;
; Optimization Technique                                                     ; Balanced                ; Balanced           ;
; Carry Chain Length                                                         ; 70                      ; 70                 ;
; Auto Carry Chains                                                          ; On                      ; On                 ;
; Auto Open-Drain Pins                                                       ; On                      ; On                 ;
; Perform WYSIWYG Primitive Resynthesis                                      ; Off                     ; Off                ;
; Auto ROM Replacement                                                       ; On                      ; On                 ;
; Auto RAM Replacement                                                       ; On                      ; On                 ;
; Auto DSP Block Replacement                                                 ; On                      ; On                 ;
; Auto Shift Register Replacement                                            ; Auto                    ; Auto               ;
; Allow Shift Register Merging across Hierarchies                            ; Auto                    ; Auto               ;
; Auto Clock Enable Replacement                                              ; On                      ; On                 ;
; Strict RAM Replacement                                                     ; Off                     ; Off                ;
; Allow Synchronous Control Signals                                          ; On                      ; On                 ;
; Force Use of Synchronous Clear Signals                                     ; Off                     ; Off                ;
; Auto RAM Block Balancing                                                   ; On                      ; On                 ;
; Auto RAM to Logic Cell Conversion                                          ; Off                     ; Off                ;
; Auto Resource Sharing                                                      ; Off                     ; Off                ;
; Allow Any RAM Size For Recognition                                         ; Off                     ; Off                ;
; Allow Any ROM Size For Recognition                                         ; Off                     ; Off                ;
; Allow Any Shift Register Size For Recognition                              ; Off                     ; Off                ;
; Use LogicLock Constraints during Resource Balancing                        ; On                      ; On                 ;
; Ignore translate_off and synthesis_off directives                          ; Off                     ; Off                ;
; Timing-Driven Synthesis                                                    ; On                      ; On                 ;
; Report Parameter Settings                                                  ; On                      ; On                 ;
; Report Source Assignments                                                  ; On                      ; On                 ;
; Report Connectivity Checks                                                 ; On                      ; On                 ;
; Ignore Maximum Fan-Out Assignments                                         ; Off                     ; Off                ;
; Synchronization Register Chain Length                                      ; 2                       ; 2                  ;
; PowerPlay Power Optimization                                               ; Normal compilation      ; Normal compilation ;
; HDL message level                                                          ; Level2                  ; Level2             ;
; Suppress Register Optimization Related Messages                            ; Off                     ; Off                ;
; Number of Removed Registers Reported in Synthesis Report                   ; 5000                    ; 5000               ;
; Number of Swept Nodes Reported in Synthesis Report                         ; 5000                    ; 5000               ;
; Number of Inverted Registers Reported in Synthesis Report                  ; 100                     ; 100                ;
; Clock MUX Protection                                                       ; On                      ; On                 ;
; Auto Gated Clock Conversion                                                ; Off                     ; Off                ;
; Block Design Naming                                                        ; Auto                    ; Auto               ;
; SDC constraint protection                                                  ; Off                     ; Off                ;
; Synthesis Effort                                                           ; Auto                    ; Auto               ;
; Shift Register Replacement - Allow Asynchronous Clear Signal               ; On                      ; On                 ;
; Pre-Mapping Resynthesis Optimization                                       ; Off                     ; Off                ;
; Analysis & Synthesis Message Level                                         ; Medium                  ; Medium             ;
; Disable Register Merging Across Hierarchies                                ; Auto                    ; Auto               ;
; Resource Aware Inference For Block RAM                                     ; On                      ; On                 ;
; Synthesis Seed                                                             ; 1                       ; 1                  ;
+----------------------------------------------------------------------------+-------------------------+--------------------+


Parallel compilation was disabled, but you have multiple processors available. Enable parallel compilation to reduce compilation time.
+-------------------------------------+
; Parallel Compilation                ;
+----------------------------+--------+
; Processors                 ; Number ;
+----------------------------+--------+
; Number detected on machine ; 4      ;
; Maximum allowed            ; 1      ;
+----------------------------+--------+


+-------------------------------------------------------------------------------------------------------------------------------------------------------------------+
; Analysis & Synthesis Source Files Read                                                                                                                            ;
+----------------------------------+-----------------+------------------------------------+---------------------------------------------------------------+---------+
; File Name with User-Entered Path ; Used in Netlist ; File Type                          ; File Name with Absolute Path                                  ; Library ;
+----------------------------------+-----------------+------------------------------------+---------------------------------------------------------------+---------+
; vhdlFullAdder.vhd                ; yes             ; User VHDL File                     ; C:/Users/kopack_g/CS375/lab4/lab4/vhdlFullAdder.vhd           ;         ;
; fourBitAdder.bdf                 ; yes             ; User Block Diagram/Schematic File  ; C:/Users/kopack_g/CS375/lab4/lab4/fourBitAdder.bdf            ;         ;
; halfAdder.bdf                    ; yes             ; User Block Diagram/Schematic File  ; C:/Users/kopack_g/CS375/lab4/lab4/halfAdder.bdf               ;         ;
; fullAdder.bdf                    ; yes             ; User Block Diagram/Schematic File  ; C:/Users/kopack_g/CS375/lab4/lab4/fullAdder.bdf               ;         ;
; eightBitAdder.bdf                ; yes             ; User Block Diagram/Schematic File  ; C:/Users/kopack_g/CS375/lab4/lab4/eightBitAdder.bdf           ;         ;
; vhdlOnesComplementer.vhd         ; yes             ; User VHDL File                     ; C:/Users/kopack_g/CS375/lab4/lab4/vhdlOnesComplementer.vhd    ;         ;
; eightBitAdderSubtractor.bdf      ; yes             ; User Block Diagram/Schematic File  ; C:/Users/kopack_g/CS375/lab4/lab4/eightBitAdderSubtractor.bdf ;         ;
+----------------------------------+-----------------+------------------------------------+---------------------------------------------------------------+---------+


+----------------------------------------------------------+
; Analysis & Synthesis Resource Usage Summary              ;
+---------------------------------------------+------------+
; Resource                                    ; Usage      ;
+---------------------------------------------+------------+
; Estimated Total logic elements              ; 12         ;
;                                             ;            ;
; Total combinational functions               ; 12         ;
; Logic element usage by number of LUT inputs ;            ;
;     -- 4 input functions                    ; 10         ;
;     -- 3 input functions                    ; 1          ;
;     -- <=2 input functions                  ; 1          ;
;                                             ;            ;
; Logic elements by mode                      ;            ;
;     -- normal mode                          ; 12         ;
;     -- arithmetic mode                      ; 0          ;
;                                             ;            ;
; Total registers                             ; 0          ;
;     -- Dedicated logic registers            ; 0          ;
;     -- I/O registers                        ; 0          ;
;                                             ;            ;
; I/O pins                                    ; 26         ;
; Embedded Multiplier 9-bit elements          ; 0          ;
; Maximum fan-out node                        ; comp~input ;
; Maximum fan-out                             ; 11         ;
; Total fan-out                               ; 80         ;
; Average fan-out                             ; 1.25       ;
+---------------------------------------------+------------+


+-----------------------------------------------------------------------------------------------------------------------------------------------------------------------------------------------------------------------------------------------------------+
; Analysis & Synthesis Resource Utilization by Entity                                                                                                                                                                                                       ;
+--------------------------------+-------------------+--------------+-------------+--------------+---------+-----------+------+--------------+-----------------------------------------------------------------------------------------------+--------------+
; Compilation Hierarchy Node     ; LC Combinationals ; LC Registers ; Memory Bits ; DSP Elements ; DSP 9x9 ; DSP 18x18 ; Pins ; Virtual Pins ; Full Hierarchy Name                                                                           ; Library Name ;
+--------------------------------+-------------------+--------------+-------------+--------------+---------+-----------+------+--------------+-----------------------------------------------------------------------------------------------+--------------+
; |eightBitAdderSubtractor       ; 12 (0)            ; 0 (0)        ; 0           ; 0            ; 0       ; 0         ; 26   ; 0            ; |eightBitAdderSubtractor                                                                      ; work         ;
;    |eightBitAdder:inst|        ; 12 (0)            ; 0 (0)        ; 0           ; 0            ; 0       ; 0         ; 0    ; 0            ; |eightBitAdderSubtractor|eightBitAdder:inst                                                   ; work         ;
;       |fourBitAdder:inst1|     ; 4 (0)             ; 0 (0)        ; 0           ; 0            ; 0       ; 0         ; 0    ; 0            ; |eightBitAdderSubtractor|eightBitAdder:inst|fourBitAdder:inst1                                ; work         ;
;          |fullAdder:inst1|     ; 1 (0)             ; 0 (0)        ; 0           ; 0            ; 0       ; 0         ; 0    ; 0            ; |eightBitAdderSubtractor|eightBitAdder:inst|fourBitAdder:inst1|fullAdder:inst1                ; work         ;
;             |halfAdder:inst|   ; 1 (1)             ; 0 (0)        ; 0           ; 0            ; 0       ; 0         ; 0    ; 0            ; |eightBitAdderSubtractor|eightBitAdder:inst|fourBitAdder:inst1|fullAdder:inst1|halfAdder:inst ; work         ;
;          |fullAdder:inst5|     ; 1 (0)             ; 0 (0)        ; 0           ; 0            ; 0       ; 0         ; 0    ; 0            ; |eightBitAdderSubtractor|eightBitAdder:inst|fourBitAdder:inst1|fullAdder:inst5                ; work         ;
;             |halfAdder:inst|   ; 1 (1)             ; 0 (0)        ; 0           ; 0            ; 0       ; 0         ; 0    ; 0            ; |eightBitAdderSubtractor|eightBitAdder:inst|fourBitAdder:inst1|fullAdder:inst5|halfAdder:inst ; work         ;
;          |vhdlFullAdder:inst4| ; 2 (2)             ; 0 (0)        ; 0           ; 0            ; 0       ; 0         ; 0    ; 0            ; |eightBitAdderSubtractor|eightBitAdder:inst|fourBitAdder:inst1|vhdlFullAdder:inst4            ; work         ;
;       |fourBitAdder:inst|      ; 8 (0)             ; 0 (0)        ; 0           ; 0            ; 0       ; 0         ; 0    ; 0            ; |eightBitAdderSubtractor|eightBitAdder:inst|fourBitAdder:inst                                 ; work         ;
;          |fullAdder:inst1|     ; 2 (1)             ; 0 (0)        ; 0           ; 0            ; 0       ; 0         ; 0    ; 0            ; |eightBitAdderSubtractor|eightBitAdder:inst|fourBitAdder:inst|fullAdder:inst1                 ; work         ;
;             |halfAdder:inst1|  ; 1 (1)             ; 0 (0)        ; 0           ; 0            ; 0       ; 0         ; 0    ; 0            ; |eightBitAdderSubtractor|eightBitAdder:inst|fourBitAdder:inst|fullAdder:inst1|halfAdder:inst1 ; work         ;
;          |fullAdder:inst5|     ; 2 (1)             ; 0 (0)        ; 0           ; 0            ; 0       ; 0         ; 0    ; 0            ; |eightBitAdderSubtractor|eightBitAdder:inst|fourBitAdder:inst|fullAdder:inst5                 ; work         ;
;             |halfAdder:inst|   ; 1 (1)             ; 0 (0)        ; 0           ; 0            ; 0       ; 0         ; 0    ; 0            ; |eightBitAdderSubtractor|eightBitAdder:inst|fourBitAdder:inst|fullAdder:inst5|halfAdder:inst  ; work         ;
;          |vhdlFullAdder:inst3| ; 2 (2)             ; 0 (0)        ; 0           ; 0            ; 0       ; 0         ; 0    ; 0            ; |eightBitAdderSubtractor|eightBitAdder:inst|fourBitAdder:inst|vhdlFullAdder:inst3             ; work         ;
;          |vhdlFullAdder:inst4| ; 2 (2)             ; 0 (0)        ; 0           ; 0            ; 0       ; 0         ; 0    ; 0            ; |eightBitAdderSubtractor|eightBitAdder:inst|fourBitAdder:inst|vhdlFullAdder:inst4             ; work         ;
+--------------------------------+-------------------+--------------+-------------+--------------+---------+-----------+------+--------------+-----------------------------------------------------------------------------------------------+--------------+
Note: For table entries with two numbers listed, the numbers in parentheses indicate the number of resources of the given type used by the specific entity alone. The numbers listed outside of parentheses indicate the total resources of the given type used by the specific entity and all of its sub-entities in the hierarchy.


+------------------------------------------------------+
; General Register Statistics                          ;
+----------------------------------------------+-------+
; Statistic                                    ; Value ;
+----------------------------------------------+-------+
; Total registers                              ; 0     ;
; Number of registers using Synchronous Clear  ; 0     ;
; Number of registers using Synchronous Load   ; 0     ;
; Number of registers using Asynchronous Clear ; 0     ;
; Number of registers using Asynchronous Load  ; 0     ;
; Number of registers using Clock Enable       ; 0     ;
; Number of registers using Preset             ; 0     ;
+----------------------------------------------+-------+


+-------------------------------+
; Elapsed Time Per Partition    ;
+----------------+--------------+
; Partition Name ; Elapsed Time ;
+----------------+--------------+
; Top            ; 00:00:00     ;
+----------------+--------------+


+-------------------------------+
; Analysis & Synthesis Messages ;
+-------------------------------+
Info: *******************************************************************
Info: Running Quartus II 64-Bit Analysis & Synthesis
    Info: Version 13.1.0 Build 162 10/23/2013 SJ Web Edition
    Info: Processing started: Fri Sep 28 17:11:49 2018
Info: Command: quartus_map --read_settings_files=on --write_settings_files=off lab4 -c lab4
Warning (20028): Parallel compilation is not licensed and has been disabled
Info (12021): Found 2 design units, including 1 entities, in source file vhdlfulladder.vhd
    Info (12022): Found design unit 1: vhdlFullAdder-logicFunc
    Info (12023): Found entity 1: vhdlFullAdder
Info (12021): Found 1 design units, including 1 entities, in source file fourbitadder.bdf
    Info (12023): Found entity 1: fourBitAdder
Info (12021): Found 1 design units, including 1 entities, in source file halfadder.bdf
    Info (12023): Found entity 1: halfAdder
Info (12021): Found 1 design units, including 1 entities, in source file fulladder.bdf
    Info (12023): Found entity 1: fullAdder
Info (12021): Found 1 design units, including 1 entities, in source file eightbitadder.bdf
    Info (12023): Found entity 1: eightBitAdder
Info (12021): Found 2 design units, including 1 entities, in source file vhdlonescomplementer.vhd
    Info (12022): Found design unit 1: vhdlOnesComplementer-complementerLogic
    Info (12023): Found entity 1: vhdlOnesComplementer
Info (12021): Found 1 design units, including 1 entities, in source file eightbitaddersubtractor.bdf
    Info (12023): Found entity 1: eightBitAdderSubtractor
Info (12127): Elaborating entity "eightBitAdderSubtractor" for the top level hierarchy
Warning (275009): Pin "y7" not connected
Warning (275009): Pin "y6" not connected
Warning (275009): Pin "y5" not connected
Warning (275009): Pin "x7" not connected
Warning (275009): Pin "x6" not connected
Warning (275009): Pin "x5" not connected
Info (12128): Elaborating entity "eightBitAdder" for hierarchy "eightBitAdder:inst"
Info (12128): Elaborating entity "fourBitAdder" for hierarchy "eightBitAdder:inst|fourBitAdder:inst1"
Info (12128): Elaborating entity "fullAdder" for hierarchy "eightBitAdder:inst|fourBitAdder:inst1|fullAdder:inst1"
Info (12128): Elaborating entity "halfAdder" for hierarchy "eightBitAdder:inst|fourBitAdder:inst1|fullAdder:inst1|halfAdder:inst"
Info (12128): Elaborating entity "vhdlFullAdder" for hierarchy "eightBitAdder:inst|fourBitAdder:inst1|vhdlFullAdder:inst3"
Info (12128): Elaborating entity "vhdlOnesComplementer" for hierarchy "vhdlOnesComplementer:inst1"
Info (286030): Timing-Driven Synthesis is running
Info (16010): Generating hard_block partition "hard_block:auto_generated_inst"
    Info (16011): Adding 0 node(s), including 0 DDIO, 0 PLL, 0 transceiver and 0 LCELL
Warning (21074): Design contains 7 input pin(s) that do not drive logic
    Warning (15610): No output dependent on input pin "y1"
    Warning (15610): No output dependent on input pin "y7"
    Warning (15610): No output dependent on input pin "y6"
    Warning (15610): No output dependent on input pin "y5"
    Warning (15610): No output dependent on input pin "x7"
    Warning (15610): No output dependent on input pin "x6"
    Warning (15610): No output dependent on input pin "x5"
Info (21057): Implemented 38 device resources after synthesis - the final resource count might be different
    Info (21058): Implemented 17 input pins
    Info (21059): Implemented 9 output pins
    Info (21061): Implemented 12 logic cells
Info: Quartus II 64-Bit Analysis & Synthesis was successful. 0 errors, 15 warnings
    Info: Peak virtual memory: 550 megabytes
    Info: Processing ended: Fri Sep 28 17:11:51 2018
    Info: Elapsed time: 00:00:02
    Info: Total CPU time (on all processors): 00:00:02


